…
```
## -- Conflicts ---------------------------------------- tidyverse_conflicts() --
## x dplyr::filter() masks stats::filter()
## x dplyr::lag()    masks stats::lag()
```

```r
(totalCount <- data %>% group_by(date) %>% summarise(totalCount = sum(steps, na.rm = T)))
```

```
## # A tibble: 61 x 2
##    date       totalCount
##    <date>          <int>
##  1 2012-10-01          0
##  2 2012-10-02        126
##  3 2012-10-03      11352
##  4 2012-10-04      12116
##  5 2012-10-05      13294
##  6 2012-10-06      15420
##  7 2012-10-07      11015
##  8 2012-10-08          0
##  9 2012-10-09      12811
## 10 2012-10-10       9900
## # ... with 51 more rows
```
…
```
## [1] 10395
```

### What is the average daily activity pattern?

#### Make a time series plot (i.e. type = "l") of the 5-minute interval (x-axis) and the average number of steps taken, averaged across all days (y-axis)


```r
(dataMeanPerInterval <- data %>% group_by(interval) %>% summarise(mean = mean(steps, na.rm = T)))
```

```
## # A tibble: 288 x 2
##    interval   mean
##       <int>  <dbl>
##  1        0 1.72  
##  2        5 0.340 
##  3       10 0.132 
##  4       15 0.151 
##  5       20 0.0755
##  6       25 2.09  
##  7       30 0.528 
##  8       35 0.868 
##  9       40 0     
## 10       45 1.47  
## # ... with 278 more rows
```
…
```r
newdata <- data
for(i in dataMeanPerInterval$interval){
  newdata$steps[is.na(newdata$steps) & newdata$interval == i] <- dataMeanPerInterval$mean[dataMeanPerInterval$interval == i]
}
```
#### Make a histogram of the total number of steps taken each day


```r
(totalCount_new <- newdata %>% group_by(date) %>% summarise(totalCount = sum(steps, na.rm = T)))
```

```
## # A tibble: 61 x 2
##    date       totalCount
##    <date>          <dbl>
##  1 2012-10-01     10766.
##  2 2012-10-02       126 
##  3 2012-10-03     11352 
##  4 2012-10-04     12116 
##  5 2012-10-05     13294 
##  6 2012-10-06     15420 
##  7 2012-10-07     11015 
##  8 2012-10-08     10766.
##  9 2012-10-09     12811 
## 10 2012-10-10      9900 
## # ... with 51 more rows
```
…
these values differ from the estimates from the first part of the assignment. 

### Are there differences in activity patterns between weekdays and weekends?


```r
newdata$week <- ifelse(weekdays(newdata$date) %in% c("Saturday", "Sunday"), "weekends", "weekdays")
(dataMeanIntervWeekday  <- newdata %>% group_by(interval, week) %>% summarise(mean = mean(steps, na.rm = T)))
```

```
## # A tibble: 288 x 3
## # Groups:   interval [?]
##    interval week       mean
##       <int> <chr>     <dbl>
##  1        0 weekdays 1.72  
##  2        5 weekdays 0.340 
##  3       10 weekdays 0.132 
##  4       15 weekdays 0.151 
##  5       20 weekdays 0.0755
##  6       25 weekdays 2.09  
##  7       30 weekdays 0.528 
##  8       35 weekdays 0.868 
##  9       40 weekdays 0     
## 10       45 weekdays 1.47  
## # ... with 278 more rows
```
…
